Austin Austin,austin.austin@locodor.com,Austin!1234,male,https://randomuser.me/api/portraits/men/88.jpg
Nathaniel Walker,nathaniel.walker@locodor.com,Nathaniel!1234,male,https://randomuser.me/api/portraits/men/87.jpg
Erdal Geist,erdal.geist@locodor.com,Erdal!1234,male,https://randomuser.me/api/portraits/men/29.jpg
Diane Perkins,diane.perkins@locodor.com,Diane!1234,female,https://randomuser.me/api/portraits/women/2.jpg
Matt Lucas,matt.lucas@locodor.com,Matt!1234,male,https://randomuser.me/api/portraits/men/36.jpg
Louis Lavoie,louis.lavoie@locodor.com,Louis!1234,male,https://randomuser.me/api/portraits/men/62.jpg
Louane Brunet,louane.brunet@locodor.com,Louane!1234,female,https://randomuser.me/api/portraits/women/92.jpg
Sara Andersen,sara.andersen@locodor.com,Sara!1234,female,https://randomuser.me/api/portraits/women/64.jpg
Gottlieb Schreiter,gottlieb.schreiter@locodor.com,Gottlieb!1234,male,https://randomuser.me/api/portraits/men/76.jpg
Lynn Martin,lynn.martin@locodor.com,Lynn!1234,female,https://randomuser.me/api/portraits/women/81.jpg
Malone Fabre,malone.fabre@locodor.com,Malone!1234,male,https://randomuser.me/api/portraits/men/85.jpg
Astrid Borch,astrid.borch@locodor.com,Astrid!1234,female,https://randomuser.me/api/portraits/women/28.jpg
Oliver Bouchard,oliver.bouchard@locodor.com,Oliver!1234,male,https://randomuser.me/api/portraits/men/54.jpg
Catherine Dombrowski,catherine.dombrowski@locodor.com,Catherine!1234,female,https://randomuser.me/api/portraits/women/45.jpg
Gerald Mills,gerald.mills@locodor.com,Gerald!1234,male,https://randomuser.me/api/portraits/men/78.jpg
Scott Sviland,scott.sviland@locodor.com,Scott!1234,male,https://randomuser.me/api/portraits/men/31.jpg
Vesna Krey,vesna.krey@locodor.com,Vesna!1234,female,https://randomuser.me/api/portraits/women/35.jpg
Hazel Johnson,hazel.johnson@locodor.com,Hazel!1234,female,https://randomuser.me/api/portraits/women/26.jpg
Ricardo Sager,ricardo.sager@locodor.com,Ricardo!1234,male,https://randomuser.me/api/portraits/men/74.jpg
Matthew Mckinney,matthew.mckinney@locodor.com,Matthew!1234,male,https://randomuser.me/api/portraits/men/33.jpg
Storm Poulsen,storm.poulsen@locodor.com,Storm!1234,male,https://randomuser.me/api/portraits/men/46.jpg
Adele Kleppa,adele.kleppa@locodor.com,Adele!1234,female,https://randomuser.me/api/portraits/women/47.jpg
Alicia Gagnon,alicia.gagnon@locodor.com,Alicia!1234,female,https://randomuser.me/api/portraits/women/17.jpg
Lionel Dahle,lionel.dahle@locodor.com,Lionel!1234,male,https://randomuser.me/api/portraits/men/59.jpg
Gonzalo Gomez,gonzalo.gomez@locodor.com,Gonzalo!1234,male,https://randomuser.me/api/portraits/men/40.jpg
Hunter Anderson,hunter.anderson@locodor.com,Hunter!1234,male,https://randomuser.me/api/portraits/men/17.jpg
Aventino Vieira,aventino.vieira@locodor.com,Aventino!1234,male,https://randomuser.me/api/portraits/men/99.jpg
Latife Abanuz,latife.abanuz@locodor.com,Latife!1234,female,https://randomuser.me/api/portraits/women/53.jpg
Cooper Cooper,cooper.cooper@locodor.com,Cooper!1234,male,https://randomuser.me/api/portraits/men/3.jpg
Ljubica Gonzalez,ljubica.gonzalez@locodor.com,Ljubica!1234,female,https://randomuser.me/api/portraits/women/79.jpg
Archer Harris,archer.harris@locodor.com,Archer!1234,male,https://randomuser.me/api/portraits/men/74.jpg
Janet Bishop,janet.bishop@locodor.com,Janet!1234,female,https://randomuser.me/api/portraits/women/18.jpg
Sabrina Walther,sabrina.walther@locodor.com,Sabrina!1234,female,https://randomuser.me/api/portraits/women/10.jpg
Jimi Laurila,jimi.laurila@locodor.com,Jimi!1234,male,https://randomuser.me/api/portraits/men/34.jpg
Braxton Moore,braxton.moore@locodor.com,Braxton!1234,male,https://randomuser.me/api/portraits/men/87.jpg
Harry Lord,harry.lord@locodor.com,Harry!1234,male,https://randomuser.me/api/portraits/men/43.jpg
Antonius Singer,antonius.singer@locodor.com,Antonius!1234,male,https://randomuser.me/api/portraits/men/79.jpg
Nicole Reed,nicole.reed@locodor.com,Nicole!1234,female,https://randomuser.me/api/portraits/women/77.jpg
Donna Chapman,donna.chapman@locodor.com,Donna!1234,female,https://randomuser.me/api/portraits/women/55.jpg
Clifford King,clifford.king@locodor.com,Clifford!1234,male,https://randomuser.me/api/portraits/men/20.jpg
Gabe Evans,gabe.evans@locodor.com,Gabe!1234,male,https://randomuser.me/api/portraits/men/54.jpg
Hugh Caldwell,hugh.caldwell@locodor.com,Hugh!1234,male,https://randomuser.me/api/portraits/men/80.jpg
Gloria Faasen,gloria.faasen@locodor.com,Gloria!1234,female,https://randomuser.me/api/portraits/women/21.jpg
Aada Ollila,aada.ollila@locodor.com,Aada!1234,female,https://randomuser.me/api/portraits/women/82.jpg
Juliana Pinto,juliana.pinto@locodor.com,Juliana!1234,female,https://randomuser.me/api/portraits/women/74.jpg
Gerhard Lambert,gerhard.lambert@locodor.com,Gerhard!1234,male,https://randomuser.me/api/portraits/men/69.jpg
Mary Gonzalez,mary.gonzalez@locodor.com,Mary!1234,female,https://randomuser.me/api/portraits/women/6.jpg
Alissa Roussel,alissa.roussel@locodor.com,Alissa!1234,female,https://randomuser.me/api/portraits/women/50.jpg
Faustine Richard,faustine.richard@locodor.com,Faustine!1234,female,https://randomuser.me/api/portraits/women/89.jpg
Luke Wood,luke.wood@locodor.com,Luke!1234,male,https://randomuser.me/api/portraits/men/58.jpg
Serenity Frazier,serenity.frazier@locodor.com,Serenity!1234,female,https://randomuser.me/api/portraits/women/26.jpg
Jasmine Walker,jasmine.walker@locodor.com,Jasmine!1234,female,https://randomuser.me/api/portraits/women/70.jpg
Elias Nielsen,elias.nielsen@locodor.com,Elias!1234,male,https://randomuser.me/api/portraits/men/6.jpg
Alvin Bruland,alvin.bruland@locodor.com,Alvin!1234,male,https://randomuser.me/api/portraits/men/61.jpg
Faith Shelton,faith.shelton@locodor.com,Faith!1234,female,https://randomuser.me/api/portraits/women/41.jpg
Joel Hayes,joel.hayes@locodor.com,Joel!1234,male,https://randomuser.me/api/portraits/men/70.jpg
Aaliyah Martin,aaliyah.martin@locodor.com,Aaliyah!1234,female,https://randomuser.me/api/portraits/women/14.jpg
Liam Picard,liam.picard@locodor.com,Liam!1234,male,https://randomuser.me/api/portraits/men/88.jpg
Ceyhan Babacan,ceyhan.babacan@locodor.com,Ceyhan!1234,female,https://randomuser.me/api/portraits/women/25.jpg
Elena Roman,elena.roman@locodor.com,Elena!1234,female,https://randomuser.me/api/portraits/women/45.jpg
Emely Harsvik,emely.harsvik@locodor.com,Emely!1234,female,https://randomuser.me/api/portraits/women/48.jpg
Lucien Rey,lucien.rey@locodor.com,Lucien!1234,male,https://randomuser.me/api/portraits/men/96.jpg
Kristina Abraham,kristina.abraham@locodor.com,Kristina!1234,female,https://randomuser.me/api/portraits/women/31.jpg
Aubrey Gauthier,aubrey.gauthier@locodor.com,Aubrey!1234,female,https://randomuser.me/api/portraits/women/86.jpg
Ava Dupuis,ava.dupuis@locodor.com,Ava!1234,female,https://randomuser.me/api/portraits/women/2.jpg
Kate Davies,kate.davies@locodor.com,Kate!1234,female,https://randomuser.me/api/portraits/women/74.jpg
Magnus Kiesewetter,magnus.kiesewetter@locodor.com,Magnus!1234,male,https://randomuser.me/api/portraits/men/12.jpg
Concetta Marie,concetta.marie@locodor.com,Concetta!1234,female,https://randomuser.me/api/portraits/women/28.jpg
Emilie Larsen,emilie.larsen@locodor.com,Emilie!1234,female,https://randomuser.me/api/portraits/women/57.jpg
Olivia Christensen,olivia.christensen@locodor.com,Olivia!1234,female,https://randomuser.me/api/portraits/women/75.jpg
Judy Montgomery,judy.montgomery@locodor.com,Judy!1234,female,https://randomuser.me/api/portraits/women/11.jpg
Leonard Hunt,leonard.hunt@locodor.com,Leonard!1234,male,https://randomuser.me/api/portraits/men/47.jpg
Emilie Madsen,emilie.madsen@locodor.com,Emilie!1234,female,https://randomuser.me/api/portraits/women/11.jpg
Clinton Hale,clinton.hale@locodor.com,Clinton!1234,male,https://randomuser.me/api/portraits/men/70.jpg
Hugo Mayerhofer,hugo.mayerhofer@locodor.com,Hugo!1234,male,https://randomuser.me/api/portraits/men/89.jpg
Becky Armstrong,becky.armstrong@locodor.com,Becky!1234,female,https://randomuser.me/api/portraits/women/68.jpg
Huguette Masson,huguette.masson@locodor.com,Huguette!1234,female,https://randomuser.me/api/portraits/women/65.jpg
Roli Souza,roli.souza@locodor.com,Roli!1234,male,https://randomuser.me/api/portraits/men/52.jpg
Addison French,addison.french@locodor.com,Addison!1234,female,https://randomuser.me/api/portraits/women/93.jpg
Ginette Joly,ginette.joly@locodor.com,Ginette!1234,female,https://randomuser.me/api/portraits/women/23.jpg
Kate Myers,kate.myers@locodor.com,Kate!1234,female,https://randomuser.me/api/portraits/women/61.jpg
Ana Soto,ana.soto@locodor.com,Ana!1234,female,https://randomuser.me/api/portraits/women/13.jpg
Alice Wang,alice.wang@locodor.com,Alice!1234,female,https://randomuser.me/api/portraits/women/51.jpg
Tanya Peterson,tanya.peterson@locodor.com,Tanya!1234,female,https://randomuser.me/api/portraits/women/41.jpg
Katalin Zech,katalin.zech@locodor.com,Katalin!1234,female,https://randomuser.me/api/portraits/women/6.jpg
Elizabeth Taylor,elizabeth.taylor@locodor.com,Elizabeth!1234,female,https://randomuser.me/api/portraits/women/49.jpg
Lauri Kauppila,lauri.kauppila@locodor.com,Lauri!1234,male,https://randomuser.me/api/portraits/men/33.jpg
Nelli Dumas,nelli.dumas@locodor.com,Nelli!1234,female,https://randomuser.me/api/portraits/women/14.jpg
Orlanda Souza,orlanda.souza@locodor.com,Orlanda!1234,female,https://randomuser.me/api/portraits/women/67.jpg
Lilli Sanches,lilli.sanches@locodor.com,Lilli!1234,female,https://randomuser.me/api/portraits/women/51.jpg
Connor Bishop,connor.bishop@locodor.com,Connor!1234,male,https://randomuser.me/api/portraits/men/54.jpg
Naomi Henderson,naomi.henderson@locodor.com,Naomi!1234,female,https://randomuser.me/api/portraits/women/3.jpg
Elias Muller,elias.muller@locodor.com,Elias!1234,male,https://randomuser.me/api/portraits/men/61.jpg
Gilbert Marshall,gilbert.marshall@locodor.com,Gilbert!1234,male,https://randomuser.me/api/portraits/men/79.jpg
Sophie Lynch,sophie.lynch@locodor.com,Sophie!1234,female,https://randomuser.me/api/portraits/women/76.jpg
Jerry Howard,jerry.howard@locodor.com,Jerry!1234,male,https://randomuser.me/api/portraits/men/30.jpg
Caitlin Owens,caitlin.owens@locodor.com,Caitlin!1234,female,https://randomuser.me/api/portraits/women/53.jpg
Grace Taylor,grace.taylor@locodor.com,Grace!1234,female,https://randomuser.me/api/portraits/women/4.jpg
Ayaan Janmaat,ayaan.janmaat@locodor.com,Ayaan!1234,female,https://randomuser.me/api/portraits/women/21.jpg
Joshua Scott,joshua.scott@locodor.com,Joshua!1234,male,https://randomuser.me/api/portraits/men/96.jpg
Darryl Palmer,darryl.palmer@locodor.com,Darryl!1234,male,https://randomuser.me/api/portraits/men/6.jpg
Nikolaus Abraham,nikolaus.abraham@locodor.com,Nikolaus!1234,male,https://randomuser.me/api/portraits/men/67.jpg
Adam Duval,adam.duval@locodor.com,Adam!1234,male,https://randomuser.me/api/portraits/men/97.jpg
Iida Lehto,iida.lehto@locodor.com,Iida!1234,female,https://randomuser.me/api/portraits/women/59.jpg
Rachel Leclerc,rachel.leclerc@locodor.com,Rachel!1234,female,https://randomuser.me/api/portraits/women/12.jpg
Jackson Pena,jackson.pena@locodor.com,Jackson!1234,male,https://randomuser.me/api/portraits/men/46.jpg
Jean Evans,jean.evans@locodor.com,Jean!1234,female,https://randomuser.me/api/portraits/women/14.jpg
Jeanette Kelley,jeanette.kelley@locodor.com,Jeanette!1234,female,https://randomuser.me/api/portraits/women/1.jpg
Andreas Larsen,andreas.larsen@locodor.com,Andreas!1234,male,https://randomuser.me/api/portraits/men/62.jpg
Finn Kvernmo,finn.kvernmo@locodor.com,Finn!1234,male,https://randomuser.me/api/portraits/men/50.jpg
Alexis Jones,alexis.jones@locodor.com,Alexis!1234,female,https://randomuser.me/api/portraits/women/71.jpg
Ljubica Schmitt,ljubica.schmitt@locodor.com,Ljubica!1234,female,https://randomuser.me/api/portraits/women/6.jpg
Heiderose Gotthardt,heiderose.gotthardt@locodor.com,Heiderose!1234,female,https://randomuser.me/api/portraits/women/34.jpg
Vickie Holmes,vickie.holmes@locodor.com,Vickie!1234,female,https://randomuser.me/api/portraits/women/76.jpg
Mason Chu,mason.chu@locodor.com,Mason!1234,male,https://randomuser.me/api/portraits/men/27.jpg
Esat Pijlman,esat.pijlman@locodor.com,Esat!1234,male,https://randomuser.me/api/portraits/men/23.jpg
Brandon Simmons,brandon.simmons@locodor.com,Brandon!1234,male,https://randomuser.me/api/portraits/men/22.jpg
Laurindo Fernandes,laurindo.fernandes@locodor.com,Laurindo!1234,male,https://randomuser.me/api/portraits/men/11.jpg
Violet Robinson,violet.robinson@locodor.com,Violet!1234,female,https://randomuser.me/api/portraits/women/70.jpg
Silva Lemmers,silva.lemmers@locodor.com,Silva!1234,female,https://randomuser.me/api/portraits/women/95.jpg
Erica Gregory,erica.gregory@locodor.com,Erica!1234,female,https://randomuser.me/api/portraits/women/71.jpg
James Cooper,james.cooper@locodor.com,James!1234,male,https://randomuser.me/api/portraits/men/21.jpg
Gregor Menard,gregor.menard@locodor.com,Gregor!1234,male,https://randomuser.me/api/portraits/men/1.jpg
Gaspar Moura,gaspar.moura@locodor.com,Gaspar!1234,male,https://randomuser.me/api/portraits/men/85.jpg
Arturo Lozano,arturo.lozano@locodor.com,Arturo!1234,male,https://randomuser.me/api/portraits/men/91.jpg
Isaiah Patterson,isaiah.patterson@locodor.com,Isaiah!1234,male,https://randomuser.me/api/portraits/men/0.jpg
Christina Little,christina.little@locodor.com,Christina!1234,female,https://randomuser.me/api/portraits/women/70.jpg
Aubree Ennis,aubree.ennis@locodor.com,Aubree!1234,female,https://randomuser.me/api/portraits/women/19.jpg
Ahmad Thomas,ahmad.thomas@locodor.com,Ahmad!1234,male,https://randomuser.me/api/portraits/men/84.jpg
John Koopmann,john.koopmann@locodor.com,John!1234,male,https://randomuser.me/api/portraits/men/37.jpg
Wallace Baker,wallace.baker@locodor.com,Wallace!1234,male,https://randomuser.me/api/portraits/men/32.jpg
Anna Pierce,anna.pierce@locodor.com,Anna!1234,female,https://randomuser.me/api/portraits/women/7.jpg
Tanju Gerritzen,tanju.gerritzen@locodor.com,Tanju!1234,male,https://randomuser.me/api/portraits/men/41.jpg
Dana Roberts,dana.roberts@locodor.com,Dana!1234,female,https://randomuser.me/api/portraits/women/58.jpg
Aubree Ambrose,aubree.ambrose@locodor.com,Aubree!1234,female,https://randomuser.me/api/portraits/women/70.jpg
Layla Patel,layla.patel@locodor.com,Layla!1234,female,https://randomuser.me/api/portraits/women/79.jpg
Constance Wright,constance.wright@locodor.com,Constance!1234,female,https://randomuser.me/api/portraits/women/17.jpg
Madison Sutton,madison.sutton@locodor.com,Madison!1234,female,https://randomuser.me/api/portraits/women/29.jpg
Christoffer Endal,christoffer.endal@locodor.com,Christoffer!1234,male,https://randomuser.me/api/portraits/men/92.jpg
Auguste Renaud,auguste.renaud@locodor.com,Auguste!1234,male,https://randomuser.me/api/portraits/men/67.jpg
Adriana Rousseau,adriana.rousseau@locodor.com,Adriana!1234,female,https://randomuser.me/api/portraits/women/34.jpg
Dan White,dan.white@locodor.com,Dan!1234,male,https://randomuser.me/api/portraits/men/16.jpg
Mila Robert,mila.robert@locodor.com,Mila!1234,female,https://randomuser.me/api/portraits/women/5.jpg
Sandra Renard,sandra.renard@locodor.com,Sandra!1234,female,https://randomuser.me/api/portraits/women/90.jpg
Erik Lucas,erik.lucas@locodor.com,Erik!1234,male,https://randomuser.me/api/portraits/men/15.jpg
Gabi Thielen,gabi.thielen@locodor.com,Gabi!1234,female,https://randomuser.me/api/portraits/women/32.jpg
Luca Cooper,luca.cooper@locodor.com,Luca!1234,male,https://randomuser.me/api/portraits/men/95.jpg
Svein Torvund,svein.torvund@locodor.com,Svein!1234,male,https://randomuser.me/api/portraits/men/41.jpg
Ida Rasmussen,ida.rasmussen@locodor.com,Ida!1234,female,https://randomuser.me/api/portraits/women/88.jpg
Mathilde Nguyen,mathilde.nguyen@locodor.com,Mathilde!1234,female,https://randomuser.me/api/portraits/women/82.jpg
Victoria Nielsen,victoria.nielsen@locodor.com,Victoria!1234,female,https://randomuser.me/api/portraits/women/91.jpg
Janet Young,janet.young@locodor.com,Janet!1234,female,https://randomuser.me/api/portraits/women/80.jpg
Sol Lilleberg,sol.lilleberg@locodor.com,Sol!1234,female,https://randomuser.me/api/portraits/women/26.jpg
Chiara Girard,chiara.girard@locodor.com,Chiara!1234,female,https://randomuser.me/api/portraits/women/19.jpg
Anton Puro,anton.puro@locodor.com,Anton!1234,male,https://randomuser.me/api/portraits/men/23.jpg
Nellie Cook,nellie.cook@locodor.com,Nellie!1234,female,https://randomuser.me/api/portraits/women/19.jpg
Martinius Reppen,martinius.reppen@locodor.com,Martinius!1234,male,https://randomuser.me/api/portraits/men/3.jpg
Johan Olsen,johan.olsen@locodor.com,Johan!1234,male,https://randomuser.me/api/portraits/men/0.jpg
Ethan Anderson,ethan.anderson@locodor.com,Ethan!1234,male,https://randomuser.me/api/portraits/men/18.jpg
Malik Ouellet,malik.ouellet@locodor.com,Malik!1234,male,https://randomuser.me/api/portraits/men/68.jpg
Max Zhang,max.zhang@locodor.com,Max!1234,male,https://randomuser.me/api/portraits/men/78.jpg
Brielle Bergeron,brielle.bergeron@locodor.com,Brielle!1234,female,https://randomuser.me/api/portraits/women/30.jpg
Cristian Prieto,cristian.prieto@locodor.com,Cristian!1234,male,https://randomuser.me/api/portraits/men/39.jpg
Juho Eskola,juho.eskola@locodor.com,Juho!1234,male,https://randomuser.me/api/portraits/men/98.jpg
Kaitlin Sanchez,kaitlin.sanchez@locodor.com,Kaitlin!1234,female,https://randomuser.me/api/portraits/women/7.jpg
Rosina Charles,rosina.charles@locodor.com,Rosina!1234,female,https://randomuser.me/api/portraits/women/7.jpg
Addison Taylor,addison.taylor@locodor.com,Addison!1234,female,https://randomuser.me/api/portraits/women/7.jpg
Kyo Verdoold,kyo.verdoold@locodor.com,Kyo!1234,male,https://randomuser.me/api/portraits/men/44.jpg
Haroen Francis,haroen.francis@locodor.com,Haroen!1234,male,https://randomuser.me/api/portraits/men/92.jpg
Shawn Oliver,shawn.oliver@locodor.com,Shawn!1234,male,https://randomuser.me/api/portraits/men/20.jpg
Cohen Hall,cohen.hall@locodor.com,Cohen!1234,male,https://randomuser.me/api/portraits/men/47.jpg
Abderrahim Fikkert,abderrahim.fikkert@locodor.com,Abderrahim!1234,male,https://randomuser.me/api/portraits/men/97.jpg
Edmond Fabre,edmond.fabre@locodor.com,Edmond!1234,male,https://randomuser.me/api/portraits/men/17.jpg
Chesney Wormgoor,chesney.wormgoor@locodor.com,Chesney!1234,male,https://randomuser.me/api/portraits/men/87.jpg
Elias Oja,elias.oja@locodor.com,Elias!1234,male,https://randomuser.me/api/portraits/men/13.jpg
Violeta Joly,violeta.joly@locodor.com,Violeta!1234,female,https://randomuser.me/api/portraits/women/12.jpg
Stoffer Vissers,stoffer.vissers@locodor.com,Stoffer!1234,male,https://randomuser.me/api/portraits/men/10.jpg
Jeppe Hansen,jeppe.hansen@locodor.com,Jeppe!1234,male,https://randomuser.me/api/portraits/men/42.jpg
Vilho Karvonen,vilho.karvonen@locodor.com,Vilho!1234,male,https://randomuser.me/api/portraits/men/92.jpg
Phoenix Thompson,phoenix.thompson@locodor.com,Phoenix!1234,male,https://randomuser.me/api/portraits/men/31.jpg
Avery Lavigne,avery.lavigne@locodor.com,Avery!1234,female,https://randomuser.me/api/portraits/women/8.jpg
Dominic Bouchard,dominic.bouchard@locodor.com,Dominic!1234,male,https://randomuser.me/api/portraits/men/87.jpg
Jose Martin,jose.martin@locodor.com,Jose!1234,female,https://randomuser.me/api/portraits/women/7.jpg
Brooklyn Roberts,brooklyn.roberts@locodor.com,Brooklyn!1234,female,https://randomuser.me/api/portraits/women/82.jpg
Amanda Gilbert,amanda.gilbert@locodor.com,Amanda!1234,female,https://randomuser.me/api/portraits/women/2.jpg
Jeanne Mitchell,jeanne.mitchell@locodor.com,Jeanne!1234,female,https://randomuser.me/api/portraits/women/88.jpg
Milena Mohn,milena.mohn@locodor.com,Milena!1234,female,https://randomuser.me/api/portraits/women/91.jpg
Irene Ertel,irene.ertel@locodor.com,Irene!1234,female,https://randomuser.me/api/portraits/women/2.jpg
Tony Gomez,tony.gomez@locodor.com,Tony!1234,male,https://randomuser.me/api/portraits/men/85.jpg
Nemo Novaes,nemo.novaes@locodor.com,Nemo!1234,male,https://randomuser.me/api/portraits/men/49.jpg
Katharina Nies,katharina.nies@locodor.com,Katharina!1234,female,https://randomuser.me/api/portraits/women/23.jpg
Daniel Turner,daniel.turner@locodor.com,Daniel!1234,male,https://randomuser.me/api/portraits/men/95.jpg
Patricia Gonzales,patricia.gonzales@locodor.com,Patricia!1234,female,https://randomuser.me/api/portraits/women/0.jpg
Audrey Laurent,audrey.laurent@locodor.com,Audrey!1234,female,https://randomuser.me/api/portraits/women/15.jpg
Semira Toren,semira.toren@locodor.com,Semira!1234,female,https://randomuser.me/api/portraits/women/76.jpg
Joshua Moore,joshua.moore@locodor.com,Joshua!1234,male,https://randomuser.me/api/portraits/men/97.jpg
Lavrans Ustad,lavrans.ustad@locodor.com,Lavrans!1234,male,https://randomuser.me/api/portraits/men/30.jpg
